<?xml version="1.0" encoding="UTF-8" standalone="no"?>
<!-- Created with Inkscape (http://www.inkscape.org/) -->

<svg
   xmlns:dc="http://purl.org/dc/elements/1.1/"
   xmlns:cc="http://creativecommons.org/ns#"
   xmlns:rdf="http://www.w3.org/1999/02/22-rdf-syntax-ns#"
   xmlns:svg="http://www.w3.org/2000/svg"
   xmlns="http://www.w3.org/2000/svg"
   xmlns:sodipodi="http://sodipodi.sourceforge.net/DTD/sodipodi-0.dtd"
   xmlns:inkscape="http://www.inkscape.org/namespaces/inkscape"
   width="60"
   height="60"
   id="svg2"
   version="1.1"
   inkscape:version="0.47 r22583"
   sodipodi:docname="flashcards2.svg">
  <defs
     id="defs4">
    <inkscape:perspective
       sodipodi:type="inkscape:persp3d"
       inkscape:vp_x="0 : 526.18109 : 1"
       inkscape:vp_y="0 : 1000 : 0"
       inkscape:vp_z="744.09448 : 526.18109 : 1"
       inkscape:persp3d-origin="372.04724 : 350.78739 : 1"
       id="perspective10" />
    <inkscape:perspective
       id="perspective3600"
       inkscape:persp3d-origin="0.5 : 0.33333333 : 1"
       inkscape:vp_z="1 : 0.5 : 1"
       inkscape:vp_y="0 : 1000 : 0"
       inkscape:vp_x="0 : 0.5 : 1"
       sodipodi:type="inkscape:persp3d" />
    <inkscape:perspective
       id="perspective3600-1"
       inkscape:persp3d-origin="0.5 : 0.33333333 : 1"
       inkscape:vp_z="1 : 0.5 : 1"
       inkscape:vp_y="0 : 1000 : 0"
       inkscape:vp_x="0 : 0.5 : 1"
       sodipodi:type="inkscape:persp3d" />
    <inkscape:perspective
       id="perspective3631"
       inkscape:persp3d-origin="0.5 : 0.33333333 : 1"
       inkscape:vp_z="1 : 0.5 : 1"
       inkscape:vp_y="0 : 1000 : 0"
       inkscape:vp_x="0 : 0.5 : 1"
       sodipodi:type="inkscape:persp3d" />
    <filter
       id="filter3998"
       inkscape:label="Inner Shadow"
       inkscape:menu="Shadows and Glows"
       inkscape:menu-tooltip="Adds a colorizable drop shadow inside"
       color-interpolation-filters="sRGB">
      <feGaussianBlur
         id="feGaussianBlur4000"
         stdDeviation="4"
         result="result8" />
      <feOffset
         id="feOffset4002"
         dx="4"
         dy="4"
         result="result11" />
      <feComposite
         id="feComposite4004"
         in2="result11"
         result="result6"
         in="SourceGraphic"
         operator="in" />
      <feFlood
         id="feFlood4006"
         result="result10"
         in="result6"
         flood-opacity="1"
         flood-color="rgb(0,0,0)" />
      <feBlend
         id="feBlend4008"
         in2="result10"
         mode="normal"
         in="result6"
         result="result12" />
      <feComposite
         id="feComposite4010"
         in2="SourceGraphic"
         result="result2"
         operator="in" />
    </filter>
    <filter
       id="filter4012"
       inkscape:label="Inner Shadow"
       inkscape:menu="Shadows and Glows"
       inkscape:menu-tooltip="Adds a colorizable drop shadow inside"
       color-interpolation-filters="sRGB">
      <feGaussianBlur
         id="feGaussianBlur4014"
         stdDeviation="4"
         result="result8" />
      <feOffset
         id="feOffset4016"
         dx="4"
         dy="4"
         result="result11" />
      <feComposite
         id="feComposite4018"
         in2="result11"
         result="result6"
         in="SourceGraphic"
         operator="in" />
      <feFlood
         id="feFlood4020"
         result="result10"
         in="result6"
         flood-opacity="1"
         flood-color="rgb(0,0,0)" />
      <feBlend
         id="feBlend4022"
         in2="result10"
         mode="normal"
         in="result6"
         result="result12" />
      <feComposite
         id="feComposite4024"
         in2="SourceGraphic"
         result="result2"
         operator="in" />
    </filter>
    <filter
       id="filter4026"
       inkscape:label="Inner Shadow"
       inkscape:menu="Shadows and Glows"
       inkscape:menu-tooltip="Adds a colorizable drop shadow inside"
       color-interpolation-filters="sRGB">
      <feGaussianBlur
         id="feGaussianBlur4028"
         stdDeviation="4"
         result="result8" />
      <feOffset
         id="feOffset4030"
         dx="4"
         dy="4"
         result="result11" />
      <feComposite
         id="feComposite4032"
         in2="result11"
         result="result6"
         in="SourceGraphic"
         operator="in" />
      <feFlood
         id="feFlood4034"
         result="result10"
         in="result6"
         flood-opacity="1"
         flood-color="rgb(0,0,0)" />
      <feBlend
         id="feBlend4036"
         in2="result10"
         mode="normal"
         in="result6"
         result="result12" />
      <feComposite
         id="feComposite4038"
         in2="SourceGraphic"
         result="result2"
         operator="in" />
    </filter>
    <filter
       id="filter4040"
       inkscape:label="Inner Shadow"
       inkscape:menu="Shadows and Glows"
       inkscape:menu-tooltip="Adds a colorizable drop shadow inside"
       color-interpolation-filters="sRGB">
      <feGaussianBlur
         id="feGaussianBlur4042"
         stdDeviation="4"
         result="result8" />
      <feOffset
         id="feOffset4044"
         dx="4"
         dy="4"
         result="result11" />
      <feComposite
         id="feComposite4046"
         in2="result11"
         result="result6"
         in="SourceGraphic"
         operator="in" />
      <feFlood
         id="feFlood4048"
         result="result10"
         in="result6"
         flood-opacity="1"
         flood-color="rgb(0,0,0)" />
      <feBlend
         id="feBlend4050"
         in2="result10"
         mode="normal"
         in="result6"
         result="result12" />
      <feComposite
         id="feComposite4052"
         in2="SourceGraphic"
         result="result2"
         operator="in" />
    </filter>
    <filter
       id="filter4054"
       inkscape:label="Inner Shadow"
       inkscape:menu="Shadows and Glows"
       inkscape:menu-tooltip="Adds a colorizable drop shadow inside"
       color-interpolation-filters="sRGB">
      <feGaussianBlur
         id="feGaussianBlur4056"
         stdDeviation="4"
         result="result8" />
      <feOffset
         id="feOffset4058"
         dx="4"
         dy="4"
         result="result11" />
      <feComposite
         id="feComposite4060"
         in2="result11"
         result="result6"
         in="SourceGraphic"
         operator="in" />
      <feFlood
         id="feFlood4062"
         result="result10"
         in="result6"
         flood-opacity="1"
         flood-color="rgb(0,0,0)" />
      <feBlend
         id="feBlend4064"
         in2="result10"
         mode="normal"
         in="result6"
         result="result12" />
      <feComposite
         id="feComposite4066"
         in2="SourceGraphic"
         result="result2"
         operator="in" />
    </filter>
  </defs>
  <sodipodi:namedview
     id="base"
     pagecolor="#ffffff"
     bordercolor="#666666"
     borderopacity="1.0"
     inkscape:pageopacity="0.0"
     inkscape:pageshadow="2"
     inkscape:zoom="5.6"
     inkscape:cx="6.3392859"
     inkscape:cy="29.628906"
     inkscape:document-units="px"
     inkscape:current-layer="layer1"
     showgrid="false"
     inkscape:snap-grids="false"
     inkscape:snap-to-guides="false"
     inkscape:snap-nodes="false"
     inkscape:snap-global="false"
     inkscape:snap-page="true"
     inkscape:window-width="1276"
     inkscape:window-height="725"
     inkscape:window-x="0"
     inkscape:window-y="24"
     inkscape:window-maximized="1" />
  <metadata
     id="metadata7">
    <rdf:RDF>
      <cc:Work
         rdf:about="">
        <dc:format>image/svg+xml</dc:format>
        <dc:type
           rdf:resource="http://purl.org/dc/dcmitype/StillImage" />
      </cc:Work>
    </rdf:RDF>
  </metadata>
  <g
     inkscape:label="Layer 1"
     inkscape:groupmode="layer"
     id="layer1"
     transform="translate(0,-992.36218)">
    <rect
       style="fill:#6d0079;fill-rule:evenodd;stroke:#2c0031;stroke-width:1.29792774000000000;stroke-linecap:butt;stroke-linejoin:miter;stroke-miterlimit:4;stroke-opacity:1;stroke-dasharray:none;fill-opacity:1;filter:url(#filter4054)"
       id="rect3588"
       width="59.223255"
       height="58.866112"
       x="0.74551702"
       y="993.01843" />
    <path
       sodipodi:type="arc"
       style="fill:#6d0079;fill-opacity:1;stroke:#f2f2f2;stroke-width:0.59423696999999998;stroke-miterlimit:4;stroke-opacity:0.95402299000000002;stroke-dasharray:none;filter:url(#filter4040)"
       id="path3590-4-3"
       sodipodi:cx="15.446428"
       sodipodi:cy="48.392857"
       sodipodi:rx="5.625"
       sodipodi:ry="4.6428571"
       d="m 21.071428,48.392857 a 5.625,4.6428571 0 1 1 -11.2499997,0 5.625,4.6428571 0 1 1 11.2499997,0 z"
       transform="matrix(4.741007,0,0,4.9554508,-43.678053,779.7859)" />
    <text
       xml:space="preserve"
       style="font-size:51.57381439px;font-style:normal;font-weight:normal;fill:#f2f2f2;fill-opacity:0.95294118;stroke:none;font-family:Bitstream Vera Sans"
       x="10.631211"
       y="1040.9158"
       id="text3645"
       transform="scale(1.001185,0.9988164)"><tspan
         sodipodi:role="line"
         id="tspan3647"
         x="10.631211"
         y="1040.9158">R</tspan></text>
    <path
       sodipodi:type="arc"
       style="fill:#6d0079;fill-opacity:1;stroke:#f2f2f2;stroke-width:1.29600000000000004;stroke-miterlimit:4;stroke-opacity:0.95402299000000002;stroke-dasharray:none;filter:url(#filter4026)"
       id="path3590-4"
       sodipodi:cx="15.446428"
       sodipodi:cy="48.392857"
       sodipodi:rx="5.625"
       sodipodi:ry="4.6428571"
       d="m 21.071428,48.392857 a 5.625,4.6428571 0 1 1 -11.2499997,0 5.625,4.6428571 0 1 1 11.2499997,0 z"
       transform="matrix(1.4807019,0,0,1.5439273,-8.050128,962.46855)" />
    <path
       sodipodi:type="arc"
       style="fill:#6d0079;fill-opacity:1;stroke:#f2f2f2;stroke-width:1.29600000000000004;stroke-miterlimit:4;stroke-opacity:0.95402299000000002;stroke-dasharray:none;filter:url(#filter4012)"
       id="path3590-5"
       sodipodi:cx="15.446428"
       sodipodi:cy="48.392857"
       sodipodi:rx="5.625"
       sodipodi:ry="4.6428571"
       d="m 21.071428,48.392857 a 5.625,4.6428571 0 1 1 -11.2499997,0 5.625,4.6428571 0 1 1 11.2499997,0 z"
       transform="matrix(1.2855229,0,0,1.268999,-9.6781662,982.20166)" />
    <path
       sodipodi:type="arc"
       style="fill:#6d0079;fill-opacity:1;stroke:#f2f2f2;stroke-width:1.29600000000000004;stroke-miterlimit:4;stroke-opacity:0.95402299000000002;stroke-dasharray:none;filter:url(#filter3998)"
       id="path3590"
       sodipodi:cx="15.446428"
       sodipodi:cy="48.392857"
       sodipodi:rx="5.625"
       sodipodi:ry="4.6428571"
       d="m 21.071428,48.392857 a 5.625,4.6428571 0 1 1 -11.2499997,0 5.625,4.6428571 0 1 1 11.2499997,0 z"
       transform="translate(-8.9285714,999.32647)" />
  </g>
</svg>
